AE 09: Logistic regression introduction
…
0.189

0.176

0.137

Use mutate to add this vector of predicted probabilities to the original data set.

heart_updated <- heart_updated |>
  mutate(predict_probab = predict(heart_disease_fit, newdata = heart_updated, type = "response") )

heart_updated

# A tibble: 4,211 × 7
   totChol TenYearCHD   age   BMI cigsPerDay heartRate predict_probab
     <dbl>      <dbl> <dbl> <dbl>      <dbl>     <dbl>          <dbl>
 1     195          0    39  27.0          0        80          0.137
 2     250          0    46  28.7          0        95          0.137
 3     245          0    48  25.3         20        75          0.170
 4     225          1    61  28.6         30        65          0.189
 5     285          0    46  23.1         23        85          0.176
 6     228          0    43  30.3          0        77          0.137
 7     205          1    63  33.1          0        60          0.137
 8     313          0    45  21.7         20        79          0.170
 9     260          0    52  26.4          0        76          0.137
10     225          0    43  23.6         30        93          0.189
# ℹ 4,201 more rows
…
